{
  "cordova-sqlite-storage": {
    "source": {
      "type": "registry",
      "id": "cordova-sqlite-storage@^2.0.4"
    },
    "is_top_level": true,
    "variables": {}
  },
  "ionic-plugin-keyboard": {
    "source": {
      "type": "registry",
      "id": "ionic-plugin-keyboard@~2.2.1"
    },
    "is_top_level": true,
    "variables": {}
  },
  "cordova-plugin-whitelist": {
    "source": {
      "type": "registry",
      "id": "cordova-plugin-whitelist@1.3.1"
    },
    "is_top_level": true,
    "variables": {}
  },
  "cordova-plugin-device": {
    "source": {
      "type": "registry",
      "id": "cordova-plugin-device@1.1.4"
    },
    "is_top_level": true,
    "variables": {}
  },
  "cordova-plugin-splashscreen": {
    "source": {
      "type": "registry",
      "id": "cordova-plugin-splashscreen@~4.0.1"
    },
    "is_top_level": true,
    "variables": {}
  },
  "cordova-plugin-ionic-webview": {
    "source": {
      "type": "registry",
      "id": "cordova-plugin-ionic-webview@^1.1.11"
    },
    "is_top_level": true,
    "variables": {}
  },
  "cordova-plugin-facebook4": {
    "source": {
      "type": "registry",
      "id": "cordova-plugin-facebook4@^1.9.1"
    },
    "is_top_level": true,
    "variables": {
      "APP_ID": "892052894280177",
      "APP_NAME": "ionic-blogs"
    }
  },
  "onesignal-cordova-plugin": {
    "source": {
      "type": "registry",
      "id": "onesignal-cordova-plugin@^2.2.2"
    },
    "is_top_level": true,
    "variables": {}
  },
  "cordova-plugin-tts": {
    "source": {
      "type": "registry",
      "id": "cordova-plugin-tts@^0.2.3"
    },
    "is_top_level": true,
    "variables": {}
  }
}